
#ifdef MINBIAS
pT     = 400;
z0     = 150;
#else
pT     = 1000;
#endif

#if defined(ITk)
	eta = 4.5;
#else
	eta = 2.5;
#endif
   
#if defined(LARGED0)
   a0=10.;
#elif defined(LARGED0_EL)
   a0=4.;
#elif defined(LRT) || defined (FSLRT)
   a0=200.;
#else
   a0=3.;
#endif

#if defined(FSLRT)
   a0min=2.;
#endif

// npix   = 1;
// nsct   = 2;
npix   = -1;
nsct   = -1;

pT_rec  = 0;
eta_rec = 5;
Rmatch = 0.05;


#if defined(LRT) || defined (FSLRT)
	a0v = 200.;
	z0v = 100.;
#else
	a0v = 10.5;
	z0v = 10.5;
#endif
